[gd_scene load_steps=4 format=2]

[ext_resource path="res://Assets/Paddle.png" type="Texture" id=1]
[ext_resource path="res://Opponent/Opponent.gd" type="Script" id=2]

[sub_resource type="RectangleShape2D" id=1]
extents = Vector2( 14.2578, 60.3936 )

[node name="Opponent" type="RigidBody2D"]
position = Vector2( 1236.48, 86.8364 )
script = ExtResource( 2 )
__meta__ = {
"_edit_group_": true
}

[node name="Sprite" type="Sprite" parent="."]
texture = ExtResource( 1 )

[node name="CollisionShape2D" type="CollisionShape2D" parent="."]
position = Vector2( -0.667419, -0.33371 )
shape = SubResource( 1 )
